wk03-assignment
…
# Create table to see totals more clearly
house_df %>% 
  group_by(city) %>% 
  summarise(count = sum(observation))

## # A tibble: 37 x 2
##    city             count
##    <fct>            <dbl>
##  1 Auburn             550
##  2 Bellevue          1407
##  3 Black Diamond      100
##  4 Bothell            195
##  5 Bryn Mawr-Skyway   262
##  6 Burien             311
##  7 Carnation          124
##  8 Cottage Lake       198
##  9 Covington          548
## 10 Des Moines         280
## #  with 27 more rows
…
